Parks Canada - Intermediate R – Advanced Data Manipulation with dplyr and tidyr
…
“Slice” rows with slice()/slice_*()

Grouping data with group_by() applies filter(), mutate(), summarize(), and slice() by group

Using select()

Select columns with bare names

library(dplyr)

penguins |>
  select(species, island, body_mass_g)

# A tibble: 344 × 3
  species island    body_mass_g
  <fct>   <fct>           <int>
1 Adelie  Torgersen        3750
2 Adelie  Torgersen        3800
3 Adelie  Torgersen        3250
4 Adelie  Torgersen          NA
5 Adelie  Torgersen        3450
# ℹ 339 more rows

Use all_of() or any_of() to select columns from a character vector

all_of(): throws an error if any names are not found

any_of(): ignores names that are not found

cols <- c("species", "sex", "bill_length_mm", "bill_depth_mm")
select(penguins, all_of(cols))

# A tibble: 344 × 4
  species sex    bill_length_mm bill_depth_mm
  <fct>   <fct>           <dbl>         <dbl>
1 Adelie  male             39.1          18.7
2 Adelie  female           39.5          17.4
3 Adelie  female           40.3          18  
4 Adelie  <NA>             NA            NA  
5 Adelie  female           36.7          19.3
# ℹ 339 more rows
…
Using the rodents data.frame:

Select the id column and all of the numeric columns

Select all columns except the columns starting with "note"

Reorder the columns, moving the last column to the first position, without specifying any column names

Using filter()

To retain only a subset of rows:

filter(penguins, species == "Adelie")

# A tibble: 152 × 8
  species island    bill_length_mm bill_depth_mm flipper_length_mm body_mass_g sex     year
  <fct>   <fct>              <dbl>         <dbl>             <int>       <int> <fct>  <int>
1 Adelie  Torgersen           39.1          18.7               181        3750 male    2007
2 Adelie  Torgersen           39.5          17.4               186        3800 female  2007
3 Adelie  Torgersen           40.3          18                 195        3250 female  2007
4 Adelie  Torgersen           NA            NA                  NA          NA <NA>    2007
5 Adelie  Torgersen           36.7          19.3               193        3450 female  2007
# ℹ 147 more rows

Combine multiple filter() conditions with , or & (AND) and | (OR):

filter(penguins, species == "Adelie", island == "Torgersen")

# A tibble: 52 × 8
  species island    bill_length_mm bill_depth_mm flipper_length_mm body_mass_g sex     year
  <fct>   <fct>              <dbl>         <dbl>             <int>       <int> <fct>  <int>
1 Adelie  Torgersen           39.1          18.7               181        3750 male    2007
2 Adelie  Torgersen           39.5          17.4               186        3800 female  2007
3 Adelie  Torgersen           40.3          18                 195        3250 female  2007
4 Adelie  Torgersen           NA            NA                  NA          NA <NA>    2007
5 Adelie  Torgersen           36.7          19.3               193        3450 female  2007
# ℹ 47 more rows

filter(penguins, species == "Adelie" | (species == "Gentoo" & body_mass_g < 4000))

# A tibble: 153 × 8
  species island    bill_length_mm bill_depth_mm flipper_length_mm body_mass_g sex     year
  <fct>   <fct>              <dbl>         <dbl>             <int>       <int> <fct>  <int>
1 Adelie  Torgersen           39.1          18.7               181        3750 male    2007
2 Adelie  Torgersen           39.5          17.4               186        3800 female  2007
3 Adelie  Torgersen           40.3          18                 195        3250 female  2007
4 Adelie  Torgersen           NA            NA                  NA          NA <NA>    2007
5 Adelie  Torgersen           36.7          19.3               193        3450 female  2007
# ℹ 148 more rows

live code these

Using mutate()

Create new columns or modify existing columns:

mutate(penguins, mass_kg = body_mass_g / 1000)

# A tibble: 344 × 9
  species island    bill_length_mm bill_depth_mm flipper_length_mm body_mass_g sex     year mass_kg
  <fct>   <fct>              <dbl>         <dbl>             <int>       <int> <fct>  <int>   <dbl>
1 Adelie  Torgersen           39.1          18.7               181        3750 male    2007    3.75
2 Adelie  Torgersen           39.5          17.4               186        3800 female  2007    3.8 
3 Adelie  Torgersen           40.3          18                 195        3250 female  2007    3.25
4 Adelie  Torgersen           NA            NA                  NA          NA <NA>    2007   NA   
5 Adelie  Torgersen           36.7          19.3               193        3450 female  2007    3.45
# ℹ 339 more rows

Create multiple columns in one mutate call:

mutate(
  penguins,
  mass_kg = body_mass_g / 1000,
  bill_ratio = bill_length_mm / bill_depth_mm
)

# A tibble: 344 × 10
  species island    bill_length_mm bill_depth_mm flipper_length_mm body_mass_g sex     year mass_kg bill_ratio
  <fct>   <fct>              <dbl>         <dbl>             <int>       <int> <fct>  <int>   <dbl>      <dbl>
1 Adelie  Torgersen           39.1          18.7               181        3750 male    2007    3.75       2.09
2 Adelie  Torgersen           39.5          17.4               186        3800 female  2007    3.8        2.27
3 Adelie  Torgersen           40.3          18                 195        3250 female  2007    3.25       2.24
4 Adelie  Torgersen           NA            NA                  NA          NA <NA>    2007   NA         NA   
5 Adelie  Torgersen           36.7          19.3               193        3450 female  2007    3.45       1.90
# ℹ 339 more rows
…
filter(select(penguins, species, island, body_mass_g), body_mass_g > 4000)

Helps avoid creating many intermediate variables.

selected_data <- select(penguins, species, island, body_mass_g)
filtered_data <- filter(selected_data, body_mass_g > 4000)

Read it out loud as “and then”

penguins |> # and then
  select(species, island, body_mass_g) |> # and then
  filter(body_mass_g > 4000)

# A tibble: 172 × 3
  species island    body_mass_g
  <fct>   <fct>           <int>
1 Adelie  Torgersen        4675
2 Adelie  Torgersen        4250
3 Adelie  Torgersen        4400
4 Adelie  Torgersen        4500
5 Adelie  Torgersen        4200
# ℹ 167 more rows

Using group_by()

Add grouping attributes that tell other dplyr functions to operate by group:

penguins |>
  select(species, island, body_mass_g) |>
  filter(body_mass_g > 4000) |>
  group_by(species, island)

# A tibble: 172 × 3
# Groups:   species, island [5]
  species island    body_mass_g
  <fct>   <fct>           <int>
1 Adelie  Torgersen        4675
2 Adelie  Torgersen        4250
3 Adelie  Torgersen        4400
4 Adelie  Torgersen        4500
5 Adelie  Torgersen        4200
# ℹ 167 more rows
…
Each row has more than one observation (more than one time, place, or subject)

Variables split across multiple columns

Eg., what if we wanted to the get the mean mass per subject?

Second example - we hopefully have metadata that tells us that the values are masses (in grams)

Example - billboard data

library(tidyr)
billboard

# A tibble: 317 × 79
  artist      track date.entered   wk1   wk2   wk3   wk4   wk5   wk6   wk7   wk8   wk9  wk10  wk11  wk12  wk13
  <chr>       <chr> <date>       <dbl> <dbl> <dbl> <dbl> <dbl> <dbl> <dbl> <dbl> <dbl> <dbl> <dbl> <dbl> <dbl>
1 2 Pac       Baby… 2000-02-26      87    82    72    77    87    94    99    NA    NA    NA    NA    NA    NA
2 2Ge+her     The … 2000-09-02      91    87    92    NA    NA    NA    NA    NA    NA    NA    NA    NA    NA
3 3 Doors Do… Kryp… 2000-04-08      81    70    68    67    66    57    54    53    51    51    51    51    47
4 3 Doors Do… Loser 2000-10-21      76    76    72    69    67    65    55    59    62    61    61    59    61
5 504 Boyz    Wobb… 2000-04-15      57    34    25    17    17    31    36    49    53    57    64    70    75
# ℹ 312 more rows
# ℹ 63 more variables: wk14 <dbl>, wk15 <dbl>, wk16 <dbl>, wk17 <dbl>, wk18 <dbl>, wk19 <dbl>, wk20 <dbl>,
#   wk21 <dbl>, wk22 <dbl>, wk23 <dbl>, wk24 <dbl>, wk25 <dbl>, wk26 <dbl>, wk27 <dbl>, wk28 <dbl>,
#   wk29 <dbl>, wk30 <dbl>, wk31 <dbl>, wk32 <dbl>, wk33 <dbl>, wk34 <dbl>, wk35 <dbl>, wk36 <dbl>,
#   wk37 <dbl>, wk38 <dbl>, wk39 <dbl>, wk40 <dbl>, wk41 <dbl>, wk42 <dbl>, wk43 <dbl>, wk44 <dbl>,
#   wk45 <dbl>, wk46 <dbl>, wk47 <dbl>, wk48 <dbl>, wk49 <dbl>, wk50 <dbl>, wk51 <dbl>, wk52 <dbl>,
#   wk53 <dbl>, wk54 <dbl>, wk55 <dbl>, wk56 <dbl>, wk57 <dbl>, wk58 <dbl>, wk59 <dbl>, wk60 <dbl>, …
…
